{
    // Locales array defines which languages are requested for translation. These locales must already exist in the Smartling project.
    // You can have one or more locales, but smartling locale name must be unique
    // Each locale has two required attributes
    //    smartling   - the locale name in Smartling, available from the API settings in the Smartling project
    //    application - the corresponding locale name in your system. This value is used in the translation commit message
    "locales": [
         {
             "smartling" : "en-us",
             "application" : "en-us"
         }
     ],

     "resourceSets": [
         // Minimal recourse set definition. Translations won't be pushed back.


         // Translation set for docx files, translation results will be put to "translated" sub-folder and translated locale will be added to result file names.
         // Custom commit message is also defined
         {
            "type"                      : "json",
            "pathRegex"                 : "public\\/locales\\/en-de\\.json",
            "translationPathExpression" : "translated/${locale}.${originalFile.extension}",
            "translationCommitMessage"  : "Translate ${originalFile.fullName} to ${locale}"
         }
     ]
}
